<?xml version="1.0" encoding="UTF-8"?>
<session version="1.0">
<refactoring comment="Copy package &apos;pl.javastart.servapp.servlet&apos; to &apos;06_Config/src&apos;&#x0D;&#x0A;- Original project: &apos;05_Forms&apos;&#x0D;&#x0A;- Destination element: &apos;06_Config/src&apos;&#x0D;&#x0A;- Original element: &apos;05_Forms/src/pl.javastart.servapp.servlet&apos;" description="Copy package" destination="=06_Config/src" element1="/src&lt;pl.javastart.servapp.servlet" flags="589830" fragments="1" id="org.eclipse.jdt.ui.copy" policy="org.eclipse.jdt.ui.copyPackages" stamp="1475577304181" version="1.0"/>
</session>