<?xml version="1.0" encoding="UTF-8"?>
<session version="1.0">
<refactoring comment="Copy package &apos;pl.javastart.servapp.servlet&apos; to &apos;02_Lifecycle/src&apos;&#x0D;&#x0A;- Original project: &apos;01_Servlets&apos;&#x0D;&#x0A;- Destination element: &apos;02_Lifecycle/src&apos;&#x0D;&#x0A;- Original element: &apos;01_Servlets/src/pl.javastart.servapp.servlet&apos;" description="Copy package" destination="=02_Lifecycle/src" element1="/src&lt;pl.javastart.servapp.servlet" flags="589830" fragments="1" id="org.eclipse.jdt.ui.copy" policy="org.eclipse.jdt.ui.copyPackages" stamp="1475525203001" version="1.0"/>
</session>